{
  "setuid": 0,
  "setgid": 0,
  "listen_port": 80,

  "whitelisted_ips": ["TODO"],

  "iptables_logfile": "/var/log/iptables.log",

  "whextra_store_directory_path": "/var/lib/monster/iptables/whextra/",

  "volume_directory": "/var/lib/monster/iptables/",
  "complete_log": "/var/log/monster/iptables"
}
